3 Stage/ProcessorCore_tb.vcd
$date
	Wed Nov 13 12:14:23 2024
$end
$version
	Icarus Verilog
$end
$timescale
	1ps
$end
$scope module ProcessorCore_tb $end
$var wire 32 ! branchPCD [31:0] $end
$var wire 1 " isBranchTakenD $end
$var wire 4 # rs1E [3:0] $end
$var wire 4 $ rs2E [3:0] $end
$var wire 1 % track $end
$var wire 2 & stallC [1:0] $end
$var wire 1 ' stall $end
$var wire 4 ( rs2D [3:0] $end
$var wire 4 ) rs1D [3:0] $end
$var wire 4 * rdE [3:0] $end
$var wire 4 + rdD [3:0] $end
$var wire 32 , op2E [31:0] $end
$var wire 32 - op2D [31:0] $end
$var wire 32 . op1E [31:0] $end
$var wire 32 / op1D [31:0] $end
$var wire 1 0 isWbE $end
$var wire 1 1 isWbD $end
$var wire 1 2 isUbranchE $end
$var wire 1 3 isUbranchD $end
$var wire 1 4 isSubE $end
$var wire 1 5 isSubD $end
$var wire 1 6 isStE $end
$var wire 1 7 isStD $end
$var wire 1 8 isRetE $end
$var wire 1 9 isRetD $end
$var wire 1 : isOrE $end
$var wire 1 ; isOrD $end
$var wire 1 < isNotE $end
$var wire 1 = isNotD $end
$var wire 1 > isMulE $end
$var wire 1 ? isMulD $end
$var wire 1 @ isMovE $end
$var wire 1 A isMovD $end
$var wire 1 B isModE $end
$var wire 1 C isModD $end
$var wire 1 D isLsrE $end
$var wire 1 E isLsrD $end
$var wire 1 F isLslE $end
$var wire 1 G isLslD $end
$var wire 1 H isLdE $end
$var wire 1 I isLdD $end
$var wire 1 J isImmediateE $end
$var wire 1 K isImmediateD $end
$var wire 1 L isDivE $end
$var wire 1 M isDivD $end
$var wire 1 N isCmpE $end
$var wire 1 O isCmpD $end
$var wire 1 P isCallE $end
$var wire 1 Q isCallD $end
$var wire 1 R isBranchTakenE $end
$var wire 1 S isBgtE $end
$var wire 1 T isBgtD $end
$var wire 1 U isBeqE $end
$var wire 1 V isBeqD $end
$var wire 1 W isAsrE $end
$var wire 1 X isAsrD $end
$var wire 1 Y isAndE $end
$var wire 1 Z isAndD $end
$var wire 1 [ isAddE $end
$var wire 1 \ isAddD $end
$var wire 32 ] instructionF [31:0] $end
$var wire 32 ^ instructionE [31:0] $end
$var wire 32 _ instructionD [31:0] $end
$var wire 32 ` immxE [31:0] $end
$var wire 32 a immxD [31:0] $end
$var wire 1 b flag_gt $end
$var wire 1 c flag_eq $end
$var wire 32 d branchTargetE [31:0] $end
$var wire 32 e branchTargetD [31:0] $end
$var wire 32 f branchPCE [31:0] $end
$var wire 32 g aluResult [31:0] $end
$var wire 32 h PCF [31:0] $end
$var wire 32 i PCE [31:0] $end
$var wire 32 j PCD [31:0] $end
$var reg 1 k clk $end
$var reg 1 l reset $end
$scope module uut $end
$var wire 32 m branchPCD [31:0] $end
$var wire 1 k clk $end
$var wire 1 " isBranchTakenD $end
$var wire 1 l reset $end
$var wire 4 n rs1E [3:0] $end
$var wire 4 o rs2E [3:0] $end
$var wire 1 % track $end
$var wire 2 p stallC [1:0] $end
$var wire 1 ' stall $end
$var wire 4 q rs2D [3:0] $end
$var wire 4 r rs1D [3:0] $end
$var wire 4 s rdE [3:0] $end
$var wire 4 t rdD [3:0] $end
$var wire 32 u op2E [31:0] $end
$var wire 32 v op2D [31:0] $end
$var wire 32 w op1E [31:0] $end
$var wire 32 x op1D [31:0] $end
$var wire 32 y ldResultE [31:0] $end
$var wire 1 0 isWbE $end
$var wire 1 1 isWbD $end
$var wire 1 2 isUbranchE $end
$var wire 1 3 isUbranchD $end
$var wire 1 4 isSubE $end
$var wire 1 5 isSubD $end
$var wire 1 6 isStE $end
$var wire 1 7 isStD $end
$var wire 1 8 isRetE $end
$var wire 1 9 isRetD $end
$var wire 1 : isOrE $end
$var wire 1 ; isOrD $end
$var wire 1 < isNotE $end
$var wire 1 = isNotD $end
$var wire 1 > isMulE $end
$var wire 1 ? isMulD $end
$var wire 1 @ isMovE $end
$var wire 1 A isMovD $end
$var wire 1 B isModE $end
$var wire 1 C isModD $end
$var wire 1 D isLsrE $end
$var wire 1 E isLsrD $end
$var wire 1 F isLslE $end
$var wire 1 G isLslD $end
$var wire 1 H isLdE $end
$var wire 1 I isLdD $end
$var wire 1 J isImmediateE $end
$var wire 1 K isImmediateD $end
$var wire 1 L isDivE $end
$var wire 1 M isDivD $end
$var wire 1 N isCmpE $end
$var wire 1 O isCmpD $end
$var wire 1 P isCallE $end
$var wire 1 Q isCallD $end
$var wire 1 R isBranchTakenE $end
$var wire 1 S isBgtE $end
$var wire 1 T isBgtD $end
$var wire 1 U isBeqE $end
$var wire 1 V isBeqD $end
$var wire 1 W isAsrE $end
$var wire 1 X isAsrD $end
$var wire 1 Y isAndE $end
$var wire 1 Z isAndD $end
$var wire 1 [ isAddE $end
$var wire 1 \ isAddD $end
$var wire 32 z instructionF [31:0] $end
$var wire 32 { instructionE [31:0] $end
$var wire 32 | instructionD [31:0] $end
$var wire 32 } immxE [31:0] $end
$var wire 32 ~ immxD [31:0] $end
$var wire 1 b flag_gt $end
$var wire 1 c flag_eq $end
$var wire 32 !" branchTargetE [31:0] $end
$var wire 32 "" branchTargetD [31:0] $end
$var wire 32 #" branchPCE [31:0] $end
$var wire 32 $" aluResult [31:0] $end
$var wire 32 %" PCF [31:0] $end
$var wire 32 &" PCE [31:0] $end
$var wire 32 '" PCD [31:0] $end
$scope module euu $end
$var wire 1 (" branchTakenByBeq $end
$var wire 1 )" branchTakenByBgt $end
$var wire 1 k clk $end
$var wire 32 *" op2 [31:0] $end
$var wire 32 +" op1 [31:0] $end
$var wire 1 0 isWb $end
$var wire 1 2 isUbranch $end
$var wire 1 4 isSub $end
$var wire 1 6 isSt $end
$var wire 1 8 isRet $end
$var wire 1 : isOr $end
$var wire 1 < isNot $end
$var wire 1 > isMul $end
$var wire 1 @ isMov $end
$var wire 1 B isMod $end
$var wire 1 D isLsr $end
$var wire 1 F isLsl $end
$var wire 1 H isLd $end
$var wire 1 J isImmediate $end
$var wire 1 L isDiv $end
$var wire 1 N isCmp $end
$var wire 1 P isCall $end
$var wire 1 S isBgt $end
$var wire 1 U isBeq $end
$var wire 1 W isAsr $end
$var wire 1 Y isAnd $end
$var wire 1 [ isAdd $end
$var wire 32 ," immx [31:0] $end
$var wire 32 -" branchTarget [31:0] $end
$var wire 32 ." aluOut [31:0] $end
$var wire 32 /" aluInputB [31:0] $end
$var wire 1 0" aluFlag_gt $end
$var wire 1 1" aluFlag_eq $end
$var reg 32 2" aluResult [31:0] $end
$var reg 32 3" branchPC [31:0] $end
$var reg 1 c flag_eq $end
$var reg 1 b flag_gt $end
$var reg 1 R isBranchTaken $end
$scope module alu $end
$var wire 32 4" B [31:0] $end
$var wire 1 4 isSub $end
$var wire 1 : isOr $end
$var wire 1 < isNot $end
$var wire 1 > isMul $end
$var wire 1 @ isMov $end
$var wire 1 B isMod $end
$var wire 1 D isLsr $end
$var wire 1 F isLsl $end
$var wire 1 L isDiv $end
$var wire 1 N isCmp $end
$var wire 1 W isAsr $end
$var wire 1 Y isAnd $end
$var wire 1 [ isAdd $end
$var wire 32 5" A [31:0] $end
$var reg 32 6" aluResult [31:0] $end
$var reg 1 1" flag_eq $end
$var reg 1 0" flag_gt $end
$upscope $end
$upscope $end
$scope module fuu $end
$var wire 32 7" branchPC [31:0] $end
$var wire 1 k clk $end
$var wire 1 R isBranchTaken $end
$var wire 1 l reset $end
$var wire 1 % track $end
$var wire 2 8" stallC [1:0] $end
$var wire 1 ' stall $end
$var reg 32 9" PC [31:0] $end
$upscope $end
$scope module hz $end
$var wire 1 k clk $end
$var wire 1 R isBranchTakenE $end
$var wire 1 l reset $end
$var wire 4 :" rs2D [3:0] $end
$var wire 4 ;" rs1D [3:0] $end
$var wire 4 <" rdE [3:0] $end
$var reg 1 ' stall $end
$var reg 2 =" stallC [1:0] $end
$var reg 1 % track $end
$upscope $end
$scope module lfd $end
$var wire 32 >" PCF [31:0] $end
$var wire 1 k clk $end
$var wire 1 l reset $end
$var wire 1 ' stall $end
$var wire 32 ?" instructionF [31:0] $end
$var reg 32 @" PCD [31:0] $end
$var reg 32 A" instructionD [31:0] $end
$upscope $end
$scope module lfe $end
$var wire 32 B" PCD [31:0] $end
$var wire 1 k clk $end
$var wire 32 C" instructionD [31:0] $end
$var wire 1 l reset $end
$var wire 1 ' stall $end
$var wire 2 D" stallC [1:0] $end
$var wire 4 E" rdD [3:0] $end
$var wire 32 F" op2D [31:0] $end
$var wire 32 G" op1D [31:0] $end
$var wire 1 1 isWbD $end
$var wire 1 3 isUbranchD $end
$var wire 1 5 isSubD $end
$var wire 1 7 isStD $end
$var wire 1 9 isRetD $end
$var wire 1 ; isOrD $end
$var wire 1 = isNotD $end
$var wire 1 ? isMulD $end
$var wire 1 A isMovD $end
$var wire 1 C isModD $end
$var wire 1 E isLsrD $end
$var wire 1 G isLslD $end
$var wire 1 I isLdD $end
$var wire 1 K isImmediateD $end
$var wire 1 M isDivD $end
$var wire 1 O isCmpD $end
$var wire 1 Q isCallD $end
$var wire 1 T isBgtD $end
$var wire 1 V isBeqD $end
$var wire 1 X isAsrD $end
$var wire 1 Z isAndD $end
$var wire 1 \ isAddD $end
$var wire 32 H" immxD [31:0] $end
$var wire 32 I" branchTargetD [31:0] $end
$var reg 32 J" PCE [31:0] $end
$var reg 32 K" branchTargetE [31:0] $end
$var reg 32 L" immxE [31:0] $end
$var reg 32 M" instructionE [31:0] $end
$var reg 1 [ isAddE $end
$var reg 1 Y isAndE $end
$var reg 1 W isAsrE $end
$var reg 1 U isBeqE $end
$var reg 1 S isBgtE $end
$var reg 1 P isCallE $end
$var reg 1 N isCmpE $end
$var reg 1 L isDivE $end
$var reg 1 J isImmediateE $end
$var reg 1 H isLdE $end
$var reg 1 F isLslE $end
$var reg 1 D isLsrE $end
$var reg 1 B isModE $end
$var reg 1 @ isMovE $end
$var reg 1 > isMulE $end
$var reg 1 < isNotE $end
$var reg 1 : isOrE $end
$var reg 1 8 isRetE $end
$var reg 1 6 isStE $end
$var reg 1 4 isSubE $end
$var reg 1 2 isUbranchE $end
$var reg 1 0 isWbE $end
$var reg 32 N" op1E [31:0] $end
$var reg 32 O" op2E [31:0] $end
$var reg 4 P" rdE [3:0] $end
$upscope $end
$scope module mem $end
$var wire 32 Q" address [31:0] $end
$var reg 32 R" instruction [31:0] $end
$upscope $end
$scope module muu $end
$var wire 32 S" aluResult [31:0] $end
$var wire 1 k clk $end
$var wire 1 H isLd $end
$var wire 1 6 isSt $end
$var wire 32 T" op2 [31:0] $end
$var reg 32 U" ldResult [31:0] $end
$upscope $end
$scope module ofu $end
$var wire 32 V" PC [31:0] $end
$var wire 1 k clk $end
$var wire 32 W" instruction [31:0] $end
$var wire 1 l reset $end
$var wire 4 X" rs2 [3:0] $end
$var wire 4 Y" rs1 [3:0] $end
$var wire 4 Z" rd [3:0] $end
$var wire 6 [" opcode [5:0] $end
$var wire 1 1 isWb $end
$var wire 1 3 isUbranch $end
$var wire 1 5 isSub $end
$var wire 1 7 isSt $end
$var wire 1 9 isRet $end
$var wire 1 ; isOr $end
$var wire 1 = isNot $end
$var wire 1 ? isMul $end
$var wire 1 A isMov $end
$var wire 1 C isMod $end
$var wire 1 E isLsr $end
$var wire 1 G isLsl $end
$var wire 1 I isLd $end
$var wire 1 K isImmediate $end
$var wire 1 M isDiv $end
$var wire 1 O isCmp $end
$var wire 1 Q isCall $end
$var wire 1 T isBgt $end
$var wire 1 V isBeq $end
$var wire 1 X isAsr $end
$var wire 1 Z isAnd $end
$var wire 1 \ isAdd $end
$var wire 27 \" instr_1_27 [26:0] $end
$var wire 18 ]" instr_1_18 [17:0] $end
$var wire 2 ^" immx_ctrl [1:0] $end
$var reg 32 _" branchTarget [31:0] $end
$var reg 32 `" immx [31:0] $end
$scope module control_unit $end
$var wire 6 a" opcode [5:0] $end
$var wire 5 b" op [4:0] $end
$var wire 1 c" I $end
$var reg 1 \ isAdd $end
$var reg 1 Z isAnd $end
$var reg 1 X isAsr $end
$var reg 1 V isBeq $end
$var reg 1 T isBgt $end
$var reg 1 Q isCall $end
$var reg 1 O isCmp $end
$var reg 1 M isDiv $end
$var reg 1 K isImmediate $end
$var reg 1 I isLd $end
$var reg 1 G isLsl $end
$var reg 1 E isLsr $end
$var reg 1 C isMod $end
$var reg 1 A isMov $end
$var reg 1 ? isMul $end
$var reg 1 = isNot $end
$var reg 1 ; isOr $end
$var reg 1 9 isRet $end
$var reg 1 7 isSt $end
$var reg 1 5 isSub $end
$var reg 1 3 isUbranch $end
$var reg 1 1 isWb $end
$upscope $end
$upscope $end
$scope module rf $end
$var wire 1 k clk $end
$var wire 1 0 isWb $end
$var wire 32 d" op1 [31:0] $end
$var wire 32 e" op2 [31:0] $end
$var wire 4 f" rd [3:0] $end
$var wire 1 l reset $end
$var wire 4 g" rs1 [3:0] $end
$var wire 4 h" rs2 [3:0] $end
$var wire 32 i" writeData [31:0] $end
$upscope $end
$upscope $end
$upscope $end
$enddefinitions $end
$comment Show the parameter values. $end
$dumpall
$end
#0
$dumpvars
bx i"
bx h"
bx g"
bx f"
bx e"
bx d"
xc"
bx b"
bx a"
b0 `"
bx _"
bx ^"
bx ]"
bx \"
bx ["
bx Z"
bx Y"
bx X"
bx W"
b11111111111111111111111111111100 V"
bx U"
bx T"
bx S"
b1001100010000000000000000000101 R"
b0 Q"
bx P"
bx O"
bx N"
bx M"
bx L"
bx K"
bx J"
bx I"
b0 H"
bx G"
bx F"
bx E"
bx D"
bx C"
b11111111111111111111111111111100 B"
bx A"
b11111111111111111111111111111100 @"
b1001100010000000000000000000101 ?"
b0 >"
bx ="
bx <"
bx ;"
bx :"
b0 9"
bx 8"
bx 7"
bx 6"
bx 5"
bx 4"
bx 3"
bx 2"
x1"
x0"
bx /"
bx ."
bx -"
bx ,"
bx +"
bx *"
x)"
x("
b11111111111111111111111111111100 '"
bx &"
b0 %"
bx $"
bx #"
bx ""
bx !"
b0 ~
bx }
bx |
bx {
b1001100010000000000000000000101 z
bx y
bx x
bx w
bx v
bx u
bx t
bx s
bx r
bx q
bx p
bz o
bz n
bz m
0l
1k
b11111111111111111111111111111100 j
bx i
b0 h
bx g
bx f
bx e
bx d
xc
xb
b0 a
bx `
bx _
bx ^
b1001100010000000000000000000101 ]
x\
x[
xZ
xY
xX
xW
xV
xU
xT
xS
xR
xQ
xP
xO
xN
xM
xL
xK
xJ
xI
xH
xG
xF
xE
xD
xC
xB
xA
x@
x?
x>
x=
x<
x;
x:
x9
x8
x7
x6
x5
x4
x3
x2
x1
x0
bx /
bx .
bx -
bx ,
bx +
bx *
bx )
bx (
0'
bx &
x%
bz $
bz #
z"
bz !
$end
#5000
b0 &
b0 p
b0 8"
b0 ="
b0 D"
0k
#10000
b101 a
b101 ~
b101 H"
b101 `"
b0 /
b0 x
b0 G"
b0 d"
b0 g"
b0 -
b0 v
b0 F"
b0 e"
1A
0=
0Z
0;
0X
0E
0G
0C
0M
0?
0O
05
0\
0Q
03
11
1K
09
0T
0V
0I
07
b0 h"
1c"
b1001 b"
b11110001000000000000000000010100 e
b11110001000000000000000000010100 ""
b11110001000000000000000000010100 I"
b11110001000000000000000000010100 _"
b100010000000000000000000101 \"
b101 ]"
b0 ^"
b1 +
b1 t
b1 E"
b1 Z"
b0 )
b0 r
b0 ;"
b0 Y"
b0 (
b0 q
b0 :"
b0 X"
b10011 ["
b10011 a"
b1001100100000000000000000000001 ]
b1001100100000000000000000000001 z
b1001100100000000000000000000001 ?"
b1001100100000000000000000000001 R"
b0 `
b0 }
b0 ,"
b0 L"
b11111111111111111111111111111100 i
b11111111111111111111111111111100 &"
b11111111111111111111111111111100 J"
b0 j
b0 '"
b0 @"
b0 B"
b0 V"
b1001100010000000000000000000101 _
b1001100010000000000000000000101 |
b1001100010000000000000000000101 A"
b1001100010000000000000000000101 C"
b1001100010000000000000000000101 W"
b100 h
b100 %"
b100 9"
b100 >"
b100 Q"
1k
#15000
0k
#20000
b101 i"
b1 a
b1 ~
b1 H"
b1 `"
0R
b101 g
b101 $"
b101 2"
b101 S"
b11110001000000000000000000010100 f
b11110001000000000000000000010100 #"
b11110001000000000000000000010100 3"
b11110001000000000000000000010100 7"
b10000100001001000000000000000 ]
b10000100001001000000000000000 z
b10000100001001000000000000000 ?"
b10000100001001000000000000000 R"
b11110010000000000000000000001000 e
b11110010000000000000000000001000 ""
b11110010000000000000000000001000 I"
b11110010000000000000000000001000 _"
b100100000000000000000000001 \"
b1 ]"
b10 +
b10 t
b10 E"
b10 Z"
b101 ."
b101 6"
0)"
0("
b101 /"
b101 4"
b1000 h
b1000 %"
b1000 9"
b1000 >"
b1000 Q"
b100 j
b100 '"
b100 @"
b100 B"
b100 V"
b1001100100000000000000000000001 _
b1001100100000000000000000000001 |
b1001100100000000000000000000001 A"
b1001100100000000000000000000001 C"
b1001100100000000000000000000001 W"
b0 ,
b0 u
b0 *"
b0 O"
b0 T"
b0 .
b0 w
b0 +"
b0 5"
b0 N"
b1 *
b1 s
b1 <"
b1 P"
b1 f"
1@
0<
0Y
0:
0W
0D
0F
0B
0L
0>
0N
04
0[
0P
02
10
1J
08
0S
0U
0H
06
b101 `
b101 }
b101 ,"
b101 L"
b11110001000000000000000000010100 d
b11110001000000000000000000010100 !"
b11110001000000000000000000010100 -"
b11110001000000000000000000010100 K"
b0 i
b0 &"
b0 J"
b1001100010000000000000000000101 ^
b1001100010000000000000000000101 {
b1001100010000000000000000000101 M"
1k
#25000
0k
#30000
b1 i"
b1 g
b1 $"
b1 2"
b1 S"
b1000000000000000 a
b1000000000000000 ~
b1000000000000000 H"
b1000000000000000 `"
b1 -
b1 v
b1 F"
b1 e"
b11110010000000000000000000001000 f
b11110010000000000000000000001000 #"
b11110010000000000000000000001000 3"
b11110010000000000000000000001000 7"
1?
0A
11
0K
b1 ."
b1 6"
b101 /
b101 x
b101 G"
b101 d"
b1 g"
b10 h"
0c"
b10 b"
b1 /"
b1 4"
b10000100100000000000001000 e
b10000100100000000000001000 ""
b10000100100000000000001000 I"
b10000100100000000000001000 _"
b100001001000000000000000 \"
b1000000000000000 ]"
b1 )
b1 r
b1 ;"
b1 Y"
b10 (
b10 q
b10 :"
b10 X"
b100 ["
b100 a"
b1100010001000000000000000001 ]
b1100010001000000000000000001 z
b1100010001000000000000000001 ?"
b1100010001000000000000000001 R"
b10 *
b10 s
b10 <"
b10 P"
b10 f"
b1 `
b1 }
b1 ,"
b1 L"
b11110010000000000000000000001000 d
b11110010000000000000000000001000 !"
b11110010000000000000000000001000 -"
b11110010000000000000000000001000 K"
b100 i
b100 &"
b100 J"
b1001100100000000000000000000001 ^
b1001100100000000000000000000001 {
b1001100100000000000000000000001 M"
b1000 j
b1000 '"
b1000 @"
b1000 B"
b1000 V"
b10000100001001000000000000000 _
b10000100001001000000000000000 |
b10000100001001000000000000000 A"
b10000100001001000000000000000 C"
b10000100001001000000000000000 W"
b1100 h
b1100 %"
b1100 9"
b1100 >"
b1100 Q"
1k
#35000
1'
0k
#40000
1k
#45000
0'
0k
#50000
b101 i"
b101 g
b101 $"
b101 2"
b101 S"
b1 a
b1 ~
b1 H"
b1 `"
b10000100100000000000001000 f
b10000100100000000000001000 #"
b10000100100000000000001000 3"
b10000100100000000000001000 7"
1K
15
0?
11
b0 -
b0 v
b0 F"
b0 e"
b0 h"
1c"
b1 b"
b101 ."
b101 6"
b11110001000100000000000000010000 e
b11110001000100000000000000010000 ""
b11110001000100000000000000010000 I"
b11110001000100000000000000010000 _"
b100010001000000000000000001 \"
b1 ]"
b1 +
b1 t
b1 E"
b1 Z"
b0 (
b0 q
b0 :"
b0 X"
b11 ["
b11 a"
b101100000001000000000000000001 ]
b101100000001000000000000000001 z
b101100000001000000000000000001 ?"
b101100000001000000000000000001 R"
b1 ,
b1 u
b1 *"
b1 O"
b1 T"
b101 .
b101 w
b101 +"
b101 5"
b101 N"
0@
1>
0J
b1000000000000000 `
b1000000000000000 }
b1000000000000000 ,"
b1000000000000000 L"
b10000100100000000000001000 d
b10000100100000000000001000 !"
b10000100100000000000001000 -"
b10000100100000000000001000 K"
b1000 i
b1000 &"
b1000 J"
b10000100001001000000000000000 ^
b10000100001001000000000000000 {
b10000100001001000000000000000 M"
b1100 j
b1100 '"
b1100 @"
b1100 B"
b1100 V"
b1100010001000000000000000001 _
b1100010001000000000000000001 |
b1100010001000000000000000001 A"
b1100010001000000000000000001 C"
b1100010001000000000000000001 W"
b10000 h
b10000 %"
b10000 9"
b10000 >"
b10000 Q"
1k
#55000
0k
#60000
b100 /
b100 x
b100 G"
b100 d"
b100 i"
b100 g
b100 $"
b100 2"
b100 S"
b11110001000100000000000000010000 f
b11110001000100000000000000010000 #"
b11110001000100000000000000010000 3"
b11110001000100000000000000010000 7"
1O
05
01
1K
b101 b"
b10001111111111111111111111111101 ]
b10001111111111111111111111111101 z
b10001111111111111111111111111101 ?"
b10001111111111111111111111111101 R"
b11110000000100000000000000010100 e
b11110000000100000000000000010100 ""
b11110000000100000000000000010100 I"
b11110000000100000000000000010100 _"
b100000001000000000000000001 \"
b0 +
b0 t
b0 E"
b0 Z"
b1011 ["
b1011 a"
b100 ."
b100 6"
b10100 h
b10100 %"
b10100 9"
b10100 >"
b10100 Q"
b10000 j
b10000 '"
b10000 @"
b10000 B"
b10000 V"
b101100000001000000000000000001 _
b101100000001000000000000000001 |
b101100000001000000000000000001 A"
b101100000001000000000000000001 C"
b101100000001000000000000000001 W"
b0 ,
b0 u
b0 *"
b0 O"
b0 T"
b1 *
b1 s
b1 <"
b1 P"
b1 f"
0>
14
1J
b1 `
b1 }
b1 ,"
b1 L"
b11110001000100000000000000010000 d
b11110001000100000000000000010000 !"
b11110001000100000000000000010000 -"
b11110001000100000000000000010000 K"
b1100 i
b1100 &"
b1100 J"
b1100010001000000000000000001 ^
b1100010001000000000000000001 {
b1100010001000000000000000001 M"
1k
#65000
1'
0k
#70000
1k
#75000
0'
0k
#80000
b0 i"
b0 a
b0 ~
b0 H"
b0 `"
1b
0c
b0 g
b0 $"
b0 2"
b0 S"
b11110000000100000000000000010100 f
b11110000000100000000000000010100 #"
b11110000000100000000000000010100 3"
b11110000000100000000000000010100 7"
1T
0O
1K
b0 /
b0 x
b0 G"
b0 d"
b1111 g"
b1111 h"
b10001 b"
bx ]
bx z
bx ?"
bx R"
b1000 e
b1000 ""
b1000 I"
b1000 _"
b111111111111111111111111101 \"
b111111111111111101 ]"
b11 ^"
b1111 +
b1111 t
b1111 E"
b1111 Z"
b1111 )
b1111 r
b1111 ;"
b1111 Y"
b1111 (
b1111 q
b1111 :"
b1111 X"
b100011 ["
b100011 a"
10"
01"
b0 ."
b0 6"
b11000 h
b11000 %"
b11000 9"
b11000 >"
b11000 Q"
b10100 j
b10100 '"
b10100 @"
b10100 B"
b10100 V"
b10001111111111111111111111111101 _
b10001111111111111111111111111101 |
b10001111111111111111111111111101 A"
b10001111111111111111111111111101 C"
b10001111111111111111111111111101 W"
b100 .
b100 w
b100 +"
b100 5"
b100 N"
b0 *
b0 s
b0 <"
b0 P"
b0 f"
1N
04
00
b11110000000100000000000000010100 d
b11110000000100000000000000010100 !"
b11110000000100000000000000010100 -"
b11110000000100000000000000010100 K"
b10000 i
b10000 &"
b10000 J"
b101100000001000000000000000001 ^
b101100000001000000000000000001 {
b101100000001000000000000000001 M"
1k
#85000
0k
#90000
1R
b1000 f
b1000 #"
b1000 3"
b1000 7"
xQ
x3
0K
0T
bx /
bx x
bx G"
bx d"
bx g"
bx -
bx v
bx F"
bx e"
bx h"
xc"
bx b"
1)"
b0 /"
b0 4"
bx e
bx ""
bx I"
bx _"
bx \"
bx ]"
bx ^"
bx +
bx t
bx E"
bx Z"
bx )
bx r
bx ;"
bx Y"
bx (
bx q
bx :"
bx X"
bx ["
bx a"
b0 .
b0 w
b0 +"
b0 5"
b0 N"
b1111 *
b1111 s
b1111 <"
b1111 P"
b1111 f"
0N
1S
b0 `
b0 }
b0 ,"
b0 L"
b1000 d
b1000 !"
b1000 -"
b1000 K"
b10100 i
b10100 &"
b10100 J"
b10001111111111111111111111111101 ^
b10001111111111111111111111111101 {
b10001111111111111111111111111101 M"
b11000 j
b11000 '"
b11000 @"
b11000 B"
b11000 V"
bx _
bx |
bx A"
bx C"
bx W"
b11100 h
b11100 %"
b11100 9"
b11100 >"
b11100 Q"
1k
#95000
b10 &
b10 p
b10 8"
b10 ="
b10 D"
0k
#100000
b10000100001001000000000000000 ]
b10000100001001000000000000000 z
b10000100001001000000000000000 ?"
b10000100001001000000000000000 R"
b1000 h
b1000 %"
b1000 9"
b1000 >"
b1000 Q"
b11100 j
b11100 '"
b11100 @"
b11100 B"
b11100 V"
1k
#105000
b1 &
b1 p
b1 8"
b1 ="
b1 D"
0k
#110000
b1000000000000000 a
b1000000000000000 ~
b1000000000000000 H"
b1000000000000000 `"
11
1?
0Q
03
b100 /
b100 x
b100 G"
b100 d"
b1 g"
b101 -
b101 v
b101 F"
b101 e"
b10 h"
0c"
b10 b"
b10000100100000000000001000 e
b10000100100000000000001000 ""
b10000100100000000000001000 I"
b10000100100000000000001000 _"
b100001001000000000000000 \"
b1000000000000000 ]"
b0 ^"
b10 +
b10 t
b10 E"
b10 Z"
b1 )
b1 r
b1 ;"
b1 Y"
b10 (
b10 q
b10 :"
b10 X"
b100 ["
b100 a"
b1100010001000000000000000001 ]
b1100010001000000000000000001 z
b1100010001000000000000000001 ?"
b1100010001000000000000000001 R"
b1000 j
b1000 '"
b1000 @"
b1000 B"
b1000 V"
b10000100001001000000000000000 _
b10000100001001000000000000000 |
b10000100001001000000000000000 A"
b10000100001001000000000000000 C"
b10000100001001000000000000000 W"
b1100 h
b1100 %"
b1100 9"
b1100 >"
b1100 Q"
1k
#115000
1%
b0 &
b0 p
b0 8"
b0 ="
b0 D"
0k
#120000
b10100 i"
b1 a
b1 ~
b1 H"
b1 `"
0R
b10100 g
b10100 $"
b10100 2"
b10100 S"
b10000100100000000000001000 f
b10000100100000000000001000 #"
b10000100100000000000001000 3"
b10000100100000000000001000 7"
1K
15
0?
11
b0 -
b0 v
b0 F"
b0 e"
b0 h"
1c"
b1 b"
b101100000001000000000000000001 ]
b101100000001000000000000000001 z
b101100000001000000000000000001 ?"
b101100000001000000000000000001 R"
b11110001000100000000000000010000 e
b11110001000100000000000000010000 ""
b11110001000100000000000000010000 I"
b11110001000100000000000000010000 _"
b100010001000000000000000001 \"
b1 ]"
b1 +
b1 t
b1 E"
b1 Z"
b0 (
b0 q
b0 :"
b0 X"
b11 ["
b11 a"
b10100 ."
b10100 6"
0)"
b101 /"
b101 4"
b10000 h
b10000 %"
b10000 9"
b10000 >"
b10000 Q"
b1100 j
b1100 '"
b1100 @"
b1100 B"
b1100 V"
b1100010001000000000000000001 _
b1100010001000000000000000001 |
b1100010001000000000000000001 A"
b1100010001000000000000000001 C"
b1100010001000000000000000001 W"
b101 ,
b101 u
b101 *"
b101 O"
b101 T"
b100 .
b100 w
b100 +"
b100 5"
b100 N"
b10 *
b10 s
b10 <"
b10 P"
b10 f"
1>
10
0J
0S
b1000000000000000 `
b1000000000000000 }
b1000000000000000 ,"
b1000000000000000 L"
b10000100100000000000001000 d
b10000100100000000000001000 !"
b10000100100000000000001000 -"
b10000100100000000000001000 K"
b1000 i
b1000 &"
b1000 J"
b10000100001001000000000000000 ^
b10000100001001000000000000000 {
b10000100001001000000000000000 M"
1k
#125000
0%
0k
#130000
b11 i"
b11 g
b11 $"
b11 2"
b11 S"
b11 /
b11 x
b11 G"
b11 d"
b11110001000100000000000000010000 f
b11110001000100000000000000010000 #"
b11110001000100000000000000010000 3"
b11110001000100000000000000010000 7"
1O
05
01
1K
b101 b"
b11 ."
b11 6"
b1 /"
b1 4"
b11110000000100000000000000010100 e
b11110000000100000000000000010100 ""
b11110000000100000000000000010100 I"
b11110000000100000000000000010100 _"
b100000001000000000000000001 \"
b0 +
b0 t
b0 E"
b0 Z"
b1011 ["
b1011 a"
b10001111111111111111111111111101 ]
b10001111111111111111111111111101 z
b10001111111111111111111111111101 ?"
b10001111111111111111111111111101 R"
b0 ,
b0 u
b0 *"
b0 O"
b0 T"
b1 *
b1 s
b1 <"
b1 P"
b1 f"
0>
14
1J
b1 `
b1 }
b1 ,"
b1 L"
b11110001000100000000000000010000 d
b11110001000100000000000000010000 !"
b11110001000100000000000000010000 -"
b11110001000100000000000000010000 K"
b1100 i
b1100 &"
b1100 J"
b1100010001000000000000000001 ^
b1100010001000000000000000001 {
b1100010001000000000000000001 M"
b10000 j
b10000 '"
b10000 @"
b10000 B"
b10000 V"
b101100000001000000000000000001 _
b101100000001000000000000000001 |
b101100000001000000000000000001 A"
b101100000001000000000000000001 C"
b101100000001000000000000000001 W"
b10100 h
b10100 %"
b10100 9"
b10100 >"
b10100 Q"
1k
#135000
1'
0k
#140000
1k
#145000
0'
0k
