4 Stage/ProcessorCore_tb.vcd
$date
	Wed Nov 13 12:15:29 2024
$end
$version
	Icarus Verilog
$end
$timescale
	1ps
$end
$scope module ProcessorCore_tb $end
$var wire 32 ! branchPCD [31:0] $end
$var wire 1 " isBranchTakenD $end
$var wire 4 # rs1E [3:0] $end
$var wire 4 $ rs2E [3:0] $end
$var wire 1 % track $end
$var wire 2 & stallC [1:0] $end
$var wire 2 ' stall [1:0] $end
$var wire 4 ( rs2D [3:0] $end
$var wire 4 ) rs1D [3:0] $end
$var wire 4 * rdM [3:0] $end
$var wire 4 + rdE [3:0] $end
$var wire 4 , rdD [3:0] $end
$var wire 32 - op2M [31:0] $end
$var wire 32 . op2E [31:0] $end
$var wire 32 / op2D [31:0] $end
$var wire 32 0 op1M [31:0] $end
$var wire 32 1 op1E [31:0] $end
$var wire 32 2 op1D [31:0] $end
$var wire 32 3 ldResultM [31:0] $end
$var wire 1 4 isWbM $end
$var wire 1 5 isWbE $end
$var wire 1 6 isWbD $end
$var wire 1 7 isUbranchM $end
$var wire 1 8 isUbranchE $end
$var wire 1 9 isUbranchD $end
$var wire 1 : isSubM $end
$var wire 1 ; isSubE $end
$var wire 1 < isSubD $end
$var wire 1 = isStM $end
$var wire 1 > isStE $end
$var wire 1 ? isStD $end
$var wire 1 @ isRetM $end
$var wire 1 A isRetE $end
$var wire 1 B isRetD $end
$var wire 1 C isOrM $end
$var wire 1 D isOrE $end
$var wire 1 E isOrD $end
$var wire 1 F isNotM $end
$var wire 1 G isNotE $end
$var wire 1 H isNotD $end
$var wire 1 I isMulM $end
$var wire 1 J isMulE $end
$var wire 1 K isMulD $end
$var wire 1 L isMovM $end
$var wire 1 M isMovE $end
$var wire 1 N isMovD $end
$var wire 1 O isModM $end
$var wire 1 P isModE $end
$var wire 1 Q isModD $end
$var wire 1 R isLsrM $end
$var wire 1 S isLsrE $end
$var wire 1 T isLsrD $end
$var wire 1 U isLslM $end
$var wire 1 V isLslE $end
$var wire 1 W isLslD $end
$var wire 1 X isLdM $end
$var wire 1 Y isLdE $end
$var wire 1 Z isLdD $end
$var wire 1 [ isImmediateM $end
$var wire 1 \ isImmediateE $end
$var wire 1 ] isImmediateD $end
$var wire 1 ^ isDivM $end
$var wire 1 _ isDivE $end
$var wire 1 ` isDivD $end
$var wire 1 a isCmpM $end
$var wire 1 b isCmpE $end
$var wire 1 c isCmpD $end
$var wire 1 d isCallM $end
$var wire 1 e isCallE $end
$var wire 1 f isCallD $end
$var wire 1 g isBranchTakenE $end
$var wire 1 h isBgtM $end
$var wire 1 i isBgtE $end
$var wire 1 j isBgtD $end
$var wire 1 k isBeqM $end
$var wire 1 l isBeqE $end
$var wire 1 m isBeqD $end
$var wire 1 n isAsrM $end
$var wire 1 o isAsrE $end
$var wire 1 p isAsrD $end
$var wire 1 q isAndM $end
$var wire 1 r isAndE $end
$var wire 1 s isAndD $end
$var wire 1 t isAddM $end
$var wire 1 u isAddE $end
$var wire 1 v isAddD $end
$var wire 32 w instructionF [31:0] $end
$var wire 32 x instructionE [31:0] $end
$var wire 32 y instructionD [31:0] $end
$var wire 32 z immxE [31:0] $end
$var wire 32 { immxD [31:0] $end
$var wire 1 | flag_gt $end
$var wire 1 } flag_eq $end
$var wire 32 ~ branchTargetE [31:0] $end
$var wire 32 !" branchTargetD [31:0] $end
$var wire 32 "" branchPCE [31:0] $end
$var wire 32 #" aluResultM [31:0] $end
$var wire 32 $" aluResultE [31:0] $end
$var wire 32 %" PCM [31:0] $end
$var wire 32 &" PCF [31:0] $end
$var wire 32 '" PCE [31:0] $end
$var wire 32 (" PCD [31:0] $end
$var reg 1 )" clk $end
$var reg 1 *" reset $end
$scope module uut $end
$var wire 32 +" branchPCD [31:0] $end
$var wire 1 )" clk $end
$var wire 1 " isBranchTakenD $end
$var wire 1 *" reset $end
$var wire 4 ," rs1E [3:0] $end
$var wire 4 -" rs2E [3:0] $end
$var wire 1 % track $end
$var wire 2 ." stallC [1:0] $end
$var wire 2 /" stall [1:0] $end
$var wire 4 0" rs2D [3:0] $end
$var wire 4 1" rs1D [3:0] $end
$var wire 4 2" rdM [3:0] $end
$var wire 4 3" rdE [3:0] $end
$var wire 4 4" rdD [3:0] $end
$var wire 32 5" op2M [31:0] $end
$var wire 32 6" op2E [31:0] $end
$var wire 32 7" op2D [31:0] $end
$var wire 32 8" op1M [31:0] $end
$var wire 32 9" op1E [31:0] $end
$var wire 32 :" op1D [31:0] $end
$var wire 32 ;" ldResultM [31:0] $end
$var wire 1 4 isWbM $end
$var wire 1 5 isWbE $end
$var wire 1 6 isWbD $end
$var wire 1 7 isUbranchM $end
$var wire 1 8 isUbranchE $end
$var wire 1 9 isUbranchD $end
$var wire 1 : isSubM $end
$var wire 1 ; isSubE $end
$var wire 1 < isSubD $end
$var wire 1 = isStM $end
$var wire 1 > isStE $end
$var wire 1 ? isStD $end
$var wire 1 @ isRetM $end
$var wire 1 A isRetE $end
$var wire 1 B isRetD $end
$var wire 1 C isOrM $end
$var wire 1 D isOrE $end
$var wire 1 E isOrD $end
$var wire 1 F isNotM $end
$var wire 1 G isNotE $end
$var wire 1 H isNotD $end
$var wire 1 I isMulM $end
$var wire 1 J isMulE $end
$var wire 1 K isMulD $end
$var wire 1 L isMovM $end
$var wire 1 M isMovE $end
$var wire 1 N isMovD $end
$var wire 1 O isModM $end
$var wire 1 P isModE $end
$var wire 1 Q isModD $end
$var wire 1 R isLsrM $end
$var wire 1 S isLsrE $end
$var wire 1 T isLsrD $end
$var wire 1 U isLslM $end
$var wire 1 V isLslE $end
$var wire 1 W isLslD $end
$var wire 1 X isLdM $end
$var wire 1 Y isLdE $end
$var wire 1 Z isLdD $end
$var wire 1 [ isImmediateM $end
$var wire 1 \ isImmediateE $end
$var wire 1 ] isImmediateD $end
$var wire 1 ^ isDivM $end
$var wire 1 _ isDivE $end
$var wire 1 ` isDivD $end
$var wire 1 a isCmpM $end
$var wire 1 b isCmpE $end
$var wire 1 c isCmpD $end
$var wire 1 d isCallM $end
$var wire 1 e isCallE $end
$var wire 1 f isCallD $end
$var wire 1 g isBranchTakenE $end
$var wire 1 h isBgtM $end
$var wire 1 i isBgtE $end
$var wire 1 j isBgtD $end
$var wire 1 k isBeqM $end
$var wire 1 l isBeqE $end
$var wire 1 m isBeqD $end
$var wire 1 n isAsrM $end
$var wire 1 o isAsrE $end
$var wire 1 p isAsrD $end
$var wire 1 q isAndM $end
$var wire 1 r isAndE $end
$var wire 1 s isAndD $end
$var wire 1 t isAddM $end
$var wire 1 u isAddE $end
$var wire 1 v isAddD $end
$var wire 32 <" instructionF [31:0] $end
$var wire 32 =" instructionE [31:0] $end
$var wire 32 >" instructionD [31:0] $end
$var wire 32 ?" immxE [31:0] $end
$var wire 32 @" immxD [31:0] $end
$var wire 1 | flag_gt $end
$var wire 1 } flag_eq $end
$var wire 32 A" branchTargetE [31:0] $end
$var wire 32 B" branchTargetD [31:0] $end
$var wire 32 C" branchPCE [31:0] $end
$var wire 32 D" aluResultM [31:0] $end
$var wire 32 E" aluResultE [31:0] $end
$var wire 32 F" PCM [31:0] $end
$var wire 32 G" PCF [31:0] $end
$var wire 32 H" PCE [31:0] $end
$var wire 32 I" PCD [31:0] $end
$scope module euu $end
$var wire 1 J" branchTakenByBeq $end
$var wire 1 K" branchTakenByBgt $end
$var wire 1 )" clk $end
$var wire 32 L" op2 [31:0] $end
$var wire 32 M" op1 [31:0] $end
$var wire 1 5 isWb $end
$var wire 1 8 isUbranch $end
$var wire 1 ; isSub $end
$var wire 1 > isSt $end
$var wire 1 A isRet $end
$var wire 1 D isOr $end
$var wire 1 G isNot $end
$var wire 1 J isMul $end
$var wire 1 M isMov $end
$var wire 1 P isMod $end
$var wire 1 S isLsr $end
$var wire 1 V isLsl $end
$var wire 1 Y isLd $end
$var wire 1 \ isImmediate $end
$var wire 1 _ isDiv $end
$var wire 1 b isCmp $end
$var wire 1 e isCall $end
$var wire 1 i isBgt $end
$var wire 1 l isBeq $end
$var wire 1 o isAsr $end
$var wire 1 r isAnd $end
$var wire 1 u isAdd $end
$var wire 32 N" immx [31:0] $end
$var wire 32 O" branchTarget [31:0] $end
$var wire 32 P" aluOut [31:0] $end
$var wire 32 Q" aluInputB [31:0] $end
$var wire 1 R" aluFlag_gt $end
$var wire 1 S" aluFlag_eq $end
$var reg 32 T" aluResult [31:0] $end
$var reg 32 U" branchPC [31:0] $end
$var reg 1 } flag_eq $end
$var reg 1 | flag_gt $end
$var reg 1 g isBranchTaken $end
$scope module alu $end
$var wire 32 V" B [31:0] $end
$var wire 1 ; isSub $end
$var wire 1 D isOr $end
$var wire 1 G isNot $end
$var wire 1 J isMul $end
$var wire 1 M isMov $end
$var wire 1 P isMod $end
$var wire 1 S isLsr $end
$var wire 1 V isLsl $end
$var wire 1 _ isDiv $end
$var wire 1 b isCmp $end
$var wire 1 o isAsr $end
$var wire 1 r isAnd $end
$var wire 1 u isAdd $end
$var wire 32 W" A [31:0] $end
$var reg 32 X" aluResult [31:0] $end
$var reg 1 S" flag_eq $end
$var reg 1 R" flag_gt $end
$upscope $end
$upscope $end
$scope module fuu $end
$var wire 32 Y" branchPC [31:0] $end
$var wire 1 )" clk $end
$var wire 1 g isBranchTaken $end
$var wire 1 *" reset $end
$var wire 1 % track $end
$var wire 2 Z" stallC [1:0] $end
$var wire 2 [" stall [1:0] $end
$var reg 32 \" PC [31:0] $end
$upscope $end
$scope module hz $end
$var wire 1 )" clk $end
$var wire 1 g isBranchTakenE $end
$var wire 1 *" reset $end
$var wire 4 ]" rs2D [3:0] $end
$var wire 4 ^" rs1D [3:0] $end
$var wire 4 _" rdM [3:0] $end
$var wire 4 `" rdE [3:0] $end
$var reg 2 a" stall [1:0] $end
$var reg 2 b" stallC [1:0] $end
$var reg 1 % track $end
$upscope $end
$scope module lem $end
$var wire 32 c" aluResultE [31:0] $end
$var wire 1 )" clk $end
$var wire 1 *" reset $end
$var wire 2 d" stall [1:0] $end
$var wire 4 e" rdE [3:0] $end
$var wire 32 f" op2E [31:0] $end
$var wire 32 g" op1E [31:0] $end
$var wire 1 5 isWbE $end
$var wire 1 8 isUbranchE $end
$var wire 1 ; isSubE $end
$var wire 1 > isStE $end
$var wire 1 A isRetE $end
$var wire 1 D isOrE $end
$var wire 1 G isNotE $end
$var wire 1 J isMulE $end
$var wire 1 M isMovE $end
$var wire 1 P isModE $end
$var wire 1 S isLsrE $end
$var wire 1 V isLslE $end
$var wire 1 Y isLdE $end
$var wire 1 \ isImmediateE $end
$var wire 1 _ isDivE $end
$var wire 1 b isCmpE $end
$var wire 1 e isCallE $end
$var wire 1 i isBgtE $end
$var wire 1 l isBeqE $end
$var wire 1 o isAsrE $end
$var wire 1 r isAndE $end
$var wire 1 u isAddE $end
$var wire 32 h" PCE [31:0] $end
$var reg 32 i" PCM [31:0] $end
$var reg 32 j" aluResultM [31:0] $end
$var reg 1 t isAddM $end
$var reg 1 q isAndM $end
$var reg 1 n isAsrM $end
$var reg 1 k isBeqM $end
$var reg 1 h isBgtM $end
$var reg 1 d isCallM $end
$var reg 1 a isCmpM $end
$var reg 1 ^ isDivM $end
$var reg 1 [ isImmediateM $end
$var reg 1 X isLdM $end
$var reg 1 U isLslM $end
$var reg 1 R isLsrM $end
$var reg 1 O isModM $end
$var reg 1 L isMovM $end
$var reg 1 I isMulM $end
$var reg 1 F isNotM $end
$var reg 1 C isOrM $end
$var reg 1 @ isRetM $end
$var reg 1 = isStM $end
$var reg 1 : isSubM $end
$var reg 1 7 isUbranchM $end
$var reg 1 4 isWbM $end
$var reg 32 k" op1M [31:0] $end
$var reg 32 l" op2M [31:0] $end
$var reg 4 m" rdM [3:0] $end
$upscope $end
$scope module lfd $end
$var wire 32 n" PCF [31:0] $end
$var wire 1 )" clk $end
$var wire 1 *" reset $end
$var wire 2 o" stall [1:0] $end
$var wire 32 p" instructionF [31:0] $end
$var reg 32 q" PCD [31:0] $end
$var reg 32 r" instructionD [31:0] $end
$upscope $end
$scope module lfe $end
$var wire 32 s" PCD [31:0] $end
$var wire 1 )" clk $end
$var wire 32 t" instructionD [31:0] $end
$var wire 1 *" reset $end
$var wire 2 u" stall [1:0] $end
$var wire 2 v" stallC [1:0] $end
$var wire 4 w" rdD [3:0] $end
$var wire 32 x" op2D [31:0] $end
$var wire 32 y" op1D [31:0] $end
$var wire 1 6 isWbD $end
$var wire 1 9 isUbranchD $end
$var wire 1 < isSubD $end
$var wire 1 ? isStD $end
$var wire 1 B isRetD $end
$var wire 1 E isOrD $end
$var wire 1 H isNotD $end
$var wire 1 K isMulD $end
$var wire 1 N isMovD $end
$var wire 1 Q isModD $end
$var wire 1 T isLsrD $end
$var wire 1 W isLslD $end
$var wire 1 Z isLdD $end
$var wire 1 ] isImmediateD $end
$var wire 1 ` isDivD $end
$var wire 1 c isCmpD $end
$var wire 1 f isCallD $end
$var wire 1 j isBgtD $end
$var wire 1 m isBeqD $end
$var wire 1 p isAsrD $end
$var wire 1 s isAndD $end
$var wire 1 v isAddD $end
$var wire 32 z" immxD [31:0] $end
$var wire 32 {" branchTargetD [31:0] $end
$var reg 32 |" PCE [31:0] $end
$var reg 32 }" branchTargetE [31:0] $end
$var reg 32 ~" immxE [31:0] $end
$var reg 32 !# instructionE [31:0] $end
$var reg 1 u isAddE $end
$var reg 1 r isAndE $end
$var reg 1 o isAsrE $end
$var reg 1 l isBeqE $end
$var reg 1 i isBgtE $end
$var reg 1 e isCallE $end
$var reg 1 b isCmpE $end
$var reg 1 _ isDivE $end
$var reg 1 \ isImmediateE $end
$var reg 1 Y isLdE $end
$var reg 1 V isLslE $end
$var reg 1 S isLsrE $end
$var reg 1 P isModE $end
$var reg 1 M isMovE $end
$var reg 1 J isMulE $end
$var reg 1 G isNotE $end
$var reg 1 D isOrE $end
$var reg 1 A isRetE $end
$var reg 1 > isStE $end
$var reg 1 ; isSubE $end
$var reg 1 8 isUbranchE $end
$var reg 1 5 isWbE $end
$var reg 32 "# op1E [31:0] $end
$var reg 32 ## op2E [31:0] $end
$var reg 4 $# rdE [3:0] $end
$upscope $end
$scope module mem $end
$var wire 32 %# address [31:0] $end
$var reg 32 &# instruction [31:0] $end
$upscope $end
$scope module muu $end
$var wire 32 '# aluResult [31:0] $end
$var wire 1 )" clk $end
$var wire 1 X isLd $end
$var wire 1 = isSt $end
$var wire 32 (# op2 [31:0] $end
$var reg 32 )# ldResult [31:0] $end
$upscope $end
$scope module ofu $end
$var wire 32 *# PC [31:0] $end
$var wire 1 )" clk $end
$var wire 32 +# instruction [31:0] $end
$var wire 1 *" reset $end
$var wire 4 ,# rs2 [3:0] $end
$var wire 4 -# rs1 [3:0] $end
$var wire 4 .# rd [3:0] $end
$var wire 6 /# opcode [5:0] $end
$var wire 1 6 isWb $end
$var wire 1 9 isUbranch $end
$var wire 1 < isSub $end
$var wire 1 ? isSt $end
$var wire 1 B isRet $end
$var wire 1 E isOr $end
$var wire 1 H isNot $end
$var wire 1 K isMul $end
$var wire 1 N isMov $end
$var wire 1 Q isMod $end
$var wire 1 T isLsr $end
$var wire 1 W isLsl $end
$var wire 1 Z isLd $end
$var wire 1 ] isImmediate $end
$var wire 1 ` isDiv $end
$var wire 1 c isCmp $end
$var wire 1 f isCall $end
$var wire 1 j isBgt $end
$var wire 1 m isBeq $end
$var wire 1 p isAsr $end
$var wire 1 s isAnd $end
$var wire 1 v isAdd $end
$var wire 27 0# instr_1_27 [26:0] $end
$var wire 18 1# instr_1_18 [17:0] $end
$var wire 2 2# immx_ctrl [1:0] $end
$var reg 32 3# branchTarget [31:0] $end
$var reg 32 4# immx [31:0] $end
$scope module control_unit $end
$var wire 6 5# opcode [5:0] $end
$var wire 5 6# op [4:0] $end
$var wire 1 7# I $end
$var reg 1 v isAdd $end
$var reg 1 s isAnd $end
$var reg 1 p isAsr $end
$var reg 1 m isBeq $end
$var reg 1 j isBgt $end
$var reg 1 f isCall $end
$var reg 1 c isCmp $end
$var reg 1 ` isDiv $end
$var reg 1 ] isImmediate $end
$var reg 1 Z isLd $end
$var reg 1 W isLsl $end
$var reg 1 T isLsr $end
$var reg 1 Q isMod $end
$var reg 1 N isMov $end
$var reg 1 K isMul $end
$var reg 1 H isNot $end
$var reg 1 E isOr $end
$var reg 1 B isRet $end
$var reg 1 ? isSt $end
$var reg 1 < isSub $end
$var reg 1 9 isUbranch $end
$var reg 1 6 isWb $end
$upscope $end
$upscope $end
$scope module rf $end
$var wire 1 )" clk $end
$var wire 1 4 isWb $end
$var wire 32 8# op1 [31:0] $end
$var wire 32 9# op2 [31:0] $end
$var wire 4 :# rd [3:0] $end
$var wire 1 *" reset $end
$var wire 4 ;# rs1 [3:0] $end
$var wire 4 <# rs2 [3:0] $end
$var wire 32 =# writeData [31:0] $end
$upscope $end
$upscope $end
$upscope $end
$enddefinitions $end
$comment Show the parameter values. $end
$dumpall
$end
#0
$dumpvars
bx =#
bx <#
bx ;#
bx :#
bx 9#
bx 8#
x7#
bx 6#
bx 5#
b0 4#
bx 3#
bx 2#
bx 1#
bx 0#
bx /#
bx .#
bx -#
bx ,#
bx +#
b11111111111111111111111111111100 *#
bx )#
bx (#
bx '#
b1001100010000000000000000000101 &#
b0 %#
bx $#
bx ##
bx "#
bx !#
bx ~"
bx }"
bx |"
bx {"
b0 z"
bx y"
bx x"
bx w"
bx v"
b0 u"
bx t"
b11111111111111111111111111111100 s"
bx r"
b11111111111111111111111111111100 q"
b1001100010000000000000000000101 p"
b0 o"
b0 n"
bx m"
bx l"
bx k"
bx j"
bx i"
bx h"
bx g"
bx f"
bx e"
b0 d"
bx c"
bx b"
b0 a"
bx `"
bx _"
bx ^"
bx ]"
b0 \"
b0 ["
bx Z"
bx Y"
bx X"
bx W"
bx V"
bx U"
bx T"
xS"
xR"
bx Q"
bx P"
bx O"
bx N"
bx M"
bx L"
xK"
xJ"
b11111111111111111111111111111100 I"
bx H"
b0 G"
bx F"
bx E"
bx D"
bx C"
bx B"
bx A"
b0 @"
bx ?"
bx >"
bx ="
b1001100010000000000000000000101 <"
bx ;"
bx :"
bx 9"
bx 8"
bx 7"
bx 6"
bx 5"
bx 4"
bx 3"
bx 2"
bx 1"
bx 0"
b0 /"
bx ."
bz -"
bz ,"
bz +"
0*"
1)"
b11111111111111111111111111111100 ("
bx '"
b0 &"
bx %"
bx $"
bx #"
bx ""
bx !"
bx ~
x}
x|
b0 {
bx z
bx y
bx x
b1001100010000000000000000000101 w
xv
xu
xt
xs
xr
xq
xp
xo
xn
xm
xl
xk
xj
xi
xh
xg
xf
xe
xd
xc
xb
xa
x`
x_
x^
x]
x\
x[
xZ
xY
xX
xW
xV
xU
xT
xS
xR
xQ
xP
xO
xN
xM
xL
xK
xJ
xI
xH
xG
xF
xE
xD
xC
xB
xA
x@
x?
x>
x=
x<
x;
x:
x9
x8
x7
x6
x5
x4
bx 3
bx 2
bx 1
bx 0
bx /
bx .
bx -
bx ,
bx +
bx *
bx )
bx (
b0 '
bx &
x%
bz $
bz #
z"
bz !
$end
#5000
b0 &
b0 ."
b0 Z"
b0 b"
b0 v"
0)"
#10000
b101 {
b101 @"
b101 z"
b101 4#
b0 2
b0 :"
b0 y"
b0 8#
b0 ;#
b0 /
b0 7"
b0 x"
b0 9#
1N
0H
0s
0E
0p
0T
0W
0Q
0`
0K
0c
0<
0v
0f
09
16
1]
0B
0j
0m
0Z
0?
b0 <#
17#
b1001 6#
b11110001000000000000000000010100 !"
b11110001000000000000000000010100 B"
b11110001000000000000000000010100 {"
b11110001000000000000000000010100 3#
b100010000000000000000000101 0#
b101 1#
b0 2#
b1 ,
b1 4"
b1 w"
b1 .#
b0 )
b0 1"
b0 ^"
b0 -#
b0 (
b0 0"
b0 ]"
b0 ,#
b10011 /#
b10011 5#
b1001100100000000000000000000001 w
b1001100100000000000000000000001 <"
b1001100100000000000000000000001 p"
b1001100100000000000000000000001 &#
b0 z
b0 ?"
b0 N"
b0 ~"
b11111111111111111111111111111100 '"
b11111111111111111111111111111100 H"
b11111111111111111111111111111100 h"
b11111111111111111111111111111100 |"
b0 ("
b0 I"
b0 q"
b0 s"
b0 *#
b1001100010000000000000000000101 y
b1001100010000000000000000000101 >"
b1001100010000000000000000000101 r"
b1001100010000000000000000000101 t"
b1001100010000000000000000000101 +#
b100 &"
b100 G"
b100 \"
b100 n"
b100 %#
1)"
#15000
0)"
#20000
b1 {
b1 @"
b1 z"
b1 4#
0g
b101 $"
b101 E"
b101 T"
b101 c"
b11110001000000000000000000010100 ""
b11110001000000000000000000010100 C"
b11110001000000000000000000010100 U"
b11110001000000000000000000010100 Y"
b10000100001001000000000000000 w
b10000100001001000000000000000 <"
b10000100001001000000000000000 p"
b10000100001001000000000000000 &#
b11110010000000000000000000001000 !"
b11110010000000000000000000001000 B"
b11110010000000000000000000001000 {"
b11110010000000000000000000001000 3#
b100100000000000000000000001 0#
b1 1#
b10 ,
b10 4"
b10 w"
b10 .#
b101 P"
b101 X"
0K"
0J"
b101 Q"
b101 V"
b1000 &"
b1000 G"
b1000 \"
b1000 n"
b1000 %#
b100 ("
b100 I"
b100 q"
b100 s"
b100 *#
b1001100100000000000000000000001 y
b1001100100000000000000000000001 >"
b1001100100000000000000000000001 r"
b1001100100000000000000000000001 t"
b1001100100000000000000000000001 +#
b0 .
b0 6"
b0 L"
b0 f"
b0 ##
b0 1
b0 9"
b0 M"
b0 W"
b0 g"
b0 "#
b1 +
b1 3"
b1 `"
b1 e"
b1 $#
1M
0G
0r
0D
0o
0S
0V
0P
0_
0J
0b
0;
0u
0e
08
15
1\
0A
0i
0l
0Y
0>
b101 z
b101 ?"
b101 N"
b101 ~"
b11110001000000000000000000010100 ~
b11110001000000000000000000010100 A"
b11110001000000000000000000010100 O"
b11110001000000000000000000010100 }"
b0 '"
b0 H"
b0 h"
b0 |"
b1001100010000000000000000000101 x
b1001100010000000000000000000101 ="
b1001100010000000000000000000101 !#
1)"
#25000
0)"
#30000
b1 $"
b1 E"
b1 T"
b1 c"
b1000000000000000 {
b1000000000000000 @"
b1000000000000000 z"
b1000000000000000 4#
b101 2
b101 :"
b101 y"
b101 8#
b11110010000000000000000000001000 ""
b11110010000000000000000000001000 C"
b11110010000000000000000000001000 U"
b11110010000000000000000000001000 Y"
1K
0N
16
0]
b1 P"
b1 X"
b1 ;#
b10 <#
07#
b10 6#
b101 =#
b1 Q"
b1 V"
b10000100100000000000001000 !"
b10000100100000000000001000 B"
b10000100100000000000001000 {"
b10000100100000000000001000 3#
b100001001000000000000000 0#
b1000000000000000 1#
b1 )
b1 1"
b1 ^"
b1 -#
b10 (
b10 0"
b10 ]"
b10 ,#
b100 /#
b100 5#
b1100010001000000000000000001 w
b1100010001000000000000000001 <"
b1100010001000000000000000001 p"
b1100010001000000000000000001 &#
b0 -
b0 5"
b0 l"
b0 (#
b0 0
b0 8"
b0 k"
1L
0F
0q
0C
0n
0R
0U
0O
0^
0I
0a
0:
0t
0d
07
14
1[
0@
0h
0k
0X
0=
b101 #"
b101 D"
b101 j"
b101 '#
b1 *
b1 2"
b1 _"
b1 m"
b1 :#
b10 +
b10 3"
b10 `"
b10 e"
b10 $#
b1 z
b1 ?"
b1 N"
b1 ~"
b11110010000000000000000000001000 ~
b11110010000000000000000000001000 A"
b11110010000000000000000000001000 O"
b11110010000000000000000000001000 }"
b100 '"
b100 H"
b100 h"
b100 |"
b1001100100000000000000000000001 x
b1001100100000000000000000000001 ="
b1001100100000000000000000000001 !#
b1000 ("
b1000 I"
b1000 q"
b1000 s"
b1000 *#
b10000100001001000000000000000 y
b10000100001001000000000000000 >"
b10000100001001000000000000000 r"
b10000100001001000000000000000 t"
b10000100001001000000000000000 +#
b1100 &"
b1100 G"
b1100 \"
b1100 n"
b1100 %#
1)"
#35000
b10 '
b10 /"
b10 ["
b10 a"
b10 d"
b10 o"
b10 u"
0)"
#40000
b1 /
b1 7"
b1 x"
b1 9#
b1 =#
b1 #"
b1 D"
b1 j"
b1 '#
b10 *
b10 2"
b10 _"
b10 m"
b10 :#
1)"
#45000
b1 '
b1 /"
b1 ["
b1 a"
b1 d"
b1 o"
b1 u"
0)"
#50000
1)"
#55000
b0 '
b0 /"
b0 ["
b0 a"
b0 d"
b0 o"
b0 u"
0)"
#60000
b1 {
b1 @"
b1 z"
b1 4#
b101 $"
b101 E"
b101 T"
b101 c"
b10000100100000000000001000 ""
b10000100100000000000001000 C"
b10000100100000000000001000 U"
b10000100100000000000001000 Y"
1]
1<
0K
16
b0 /
b0 7"
b0 x"
b0 9#
b0 <#
17#
b1 6#
b101100000001000000000000000001 w
b101100000001000000000000000001 <"
b101100000001000000000000000001 p"
b101100000001000000000000000001 &#
b11110001000100000000000000010000 !"
b11110001000100000000000000010000 B"
b11110001000100000000000000010000 {"
b11110001000100000000000000010000 3#
b100010001000000000000000001 0#
b1 1#
b1 ,
b1 4"
b1 w"
b1 .#
b0 (
b0 0"
b0 ]"
b0 ,#
b11 /#
b11 5#
b101 P"
b101 X"
b10000 &"
b10000 G"
b10000 \"
b10000 n"
b10000 %#
b1100 ("
b1100 I"
b1100 q"
b1100 s"
b1100 *#
b1100010001000000000000000001 y
b1100010001000000000000000001 >"
b1100010001000000000000000001 r"
b1100010001000000000000000001 t"
b1100010001000000000000000001 +#
b1 .
b1 6"
b1 L"
b1 f"
b1 ##
b101 1
b101 9"
b101 M"
b101 W"
b101 g"
b101 "#
0M
1J
0\
b1000000000000000 z
b1000000000000000 ?"
b1000000000000000 N"
b1000000000000000 ~"
b10000100100000000000001000 ~
b10000100100000000000001000 A"
b10000100100000000000001000 O"
b10000100100000000000001000 }"
b1000 '"
b1000 H"
b1000 h"
b1000 |"
b10000100001001000000000000000 x
b10000100001001000000000000000 ="
b10000100001001000000000000000 !#
1)"
#65000
0)"
#70000
b100 $"
b100 E"
b100 T"
b100 c"
b11110001000100000000000000010000 ""
b11110001000100000000000000010000 C"
b11110001000100000000000000010000 U"
b11110001000100000000000000010000 Y"
1c
0<
06
1]
b101 =#
b101 6#
b100 P"
b100 X"
b11110000000100000000000000010100 !"
b11110000000100000000000000010100 B"
b11110000000100000000000000010100 {"
b11110000000100000000000000010100 3#
b100000001000000000000000001 0#
b0 ,
b0 4"
b0 w"
b0 .#
b1011 /#
b1011 5#
b10001111111111111111111111111101 w
b10001111111111111111111111111101 <"
b10001111111111111111111111111101 p"
b10001111111111111111111111111101 &#
b1 -
b1 5"
b1 l"
b1 (#
b101 0
b101 8"
b101 k"
0L
1I
0[
b101 #"
b101 D"
b101 j"
b101 '#
b0 .
b0 6"
b0 L"
b0 f"
b0 ##
b1 +
b1 3"
b1 `"
b1 e"
b1 $#
0J
1;
1\
b1 z
b1 ?"
b1 N"
b1 ~"
b11110001000100000000000000010000 ~
b11110001000100000000000000010000 A"
b11110001000100000000000000010000 O"
b11110001000100000000000000010000 }"
b1100 '"
b1100 H"
b1100 h"
b1100 |"
b1100010001000000000000000001 x
b1100010001000000000000000001 ="
b1100010001000000000000000001 !#
b10000 ("
b10000 I"
b10000 q"
b10000 s"
b10000 *#
b101100000001000000000000000001 y
b101100000001000000000000000001 >"
b101100000001000000000000000001 r"
b101100000001000000000000000001 t"
b101100000001000000000000000001 +#
b10100 &"
b10100 G"
b10100 \"
b10100 n"
b10100 %#
1)"
#75000
b10 '
b10 /"
b10 ["
b10 a"
b10 d"
b10 o"
b10 u"
0)"
#80000
b100 2
b100 :"
b100 y"
b100 8#
b100 =#
b0 -
b0 5"
b0 l"
b0 (#
0I
1:
1[
b100 #"
b100 D"
b100 j"
b100 '#
b1 *
b1 2"
b1 _"
b1 m"
b1 :#
1)"
#85000
b1 '
b1 /"
b1 ["
b1 a"
b1 d"
b1 o"
b1 u"
0)"
#90000
1)"
#95000
b0 '
b0 /"
b0 ["
b0 a"
b0 d"
b0 o"
b0 u"
0)"
#100000
b0 {
b0 @"
b0 z"
b0 4#
1|
0}
b0 $"
b0 E"
b0 T"
b0 c"
b11110000000100000000000000010100 ""
b11110000000100000000000000010100 C"
b11110000000100000000000000010100 U"
b11110000000100000000000000010100 Y"
1j
0c
1]
b0 2
b0 :"
b0 y"
b0 8#
b1111 ;#
b1111 <#
b10001 6#
bx w
bx <"
bx p"
bx &#
b1000 !"
b1000 B"
b1000 {"
b1000 3#
b111111111111111111111111101 0#
b111111111111111101 1#
b11 2#
b1111 ,
b1111 4"
b1111 w"
b1111 .#
b1111 )
b1111 1"
b1111 ^"
b1111 -#
b1111 (
b1111 0"
b1111 ]"
b1111 ,#
b100011 /#
b100011 5#
1R"
0S"
b0 P"
b0 X"
b11000 &"
b11000 G"
b11000 \"
b11000 n"
b11000 %#
b10100 ("
b10100 I"
b10100 q"
b10100 s"
b10100 *#
b10001111111111111111111111111101 y
b10001111111111111111111111111101 >"
b10001111111111111111111111111101 r"
b10001111111111111111111111111101 t"
b10001111111111111111111111111101 +#
b100 1
b100 9"
b100 M"
b100 W"
b100 g"
b100 "#
b0 +
b0 3"
b0 `"
b0 e"
b0 $#
1b
0;
05
b11110000000100000000000000010100 ~
b11110000000100000000000000010100 A"
b11110000000100000000000000010100 O"
b11110000000100000000000000010100 }"
b10000 '"
b10000 H"
b10000 h"
b10000 |"
b101100000001000000000000000001 x
b101100000001000000000000000001 ="
b101100000001000000000000000001 !#
1)"
#105000
0)"
